Laboratorio_2/Lab2/Files/Decoder/simulation/qsim/Decoder7.msim.vcd
$comment
	File created using the following command:
		vcd file Decoder7.msim.vcd -direction
$end
$date
	Sat Apr 07 17:47:50 2018
$end
$version
	ModelSim Version 10.5b
$end
$timescale
	1ps
$end

$scope module decoder7_vlg_vec_tst $end
$var reg 1 ! Clk $end
$var reg 4 " In [3:0] $end
$var wire 1 # Out [6] $end
$var wire 1 $ Out [5] $end
$var wire 1 % Out [4] $end
$var wire 1 & Out [3] $end
$var wire 1 ' Out [2] $end
$var wire 1 ( Out [1] $end
$var wire 1 ) Out [0] $end

$scope module i1 $end
$var wire 1 * gnd $end
$var wire 1 + vcc $end
$var wire 1 , unknown $end
$var tri1 1 - devclrn $end
$var tri1 1 . devpor $end
$var tri1 1 / devoe $end
$var wire 1 0 Clk~input_o $end
$var wire 1 1 ~QUARTUS_CREATED_GND~I_combout $end
$var wire 1 2 In[3]~input_o $end
$var wire 1 3 In[0]~input_o $end
$var wire 1 4 In[2]~input_o $end
$var wire 1 5 In[1]~input_o $end
$var wire 1 6 WideOr6~0_combout $end
$var wire 1 7 WideOr5~0_combout $end
$var wire 1 8 WideOr4~0_combout $end
$var wire 1 9 WideOr3~0_combout $end
$var wire 1 : WideOr2~0_combout $end
$var wire 1 ; WideOr1~0_combout $end
$var wire 1 < WideOr0~0_combout $end
$upscope $end
$upscope $end
$enddefinitions $end
#0
$dumpvars
0!
b0 "
0)
0(
0'
0&
0%
0$
1#
0*
1+
x,
1-
1.
1/
00
01
02
03
04
05
06
07
08
09
0:
0;
0<
$end
#10000
1!
10
#20000
0!
00
#30000
1!
10
#40000
b1 "
0!
13
00
1;
1:
19
16
1)
1&
1%
1$
#50000
1!
10
#60000
0!
00
#70000
1!
10
#80000
b11 "
b10 "
0!
03
15
00
1<
0:
09
18
06
0)
1'
0&
0%
0#
#90000
1!
10
#100000
0!
00
#110000
1!
10
#120000
b11 "
0!
13
00
1:
08
0'
1%
#130000
1!
10
#140000
0!
00
#150000
1!
10
#160000
b111 "
b101 "
b100 "
0!
03
05
14
00
0;
19
16
1)
1&
0$
#170000
1!
10
#180000
0!
00
#190000
1!
10
#200000
b101 "
0!
13
00
09
17
06
0)
1(
0&
#210000
1!
10
#220000
0!
00
#230000
1!
10
#240000
b111 "
b110 "
0!
03
15
00
0:
0%
#250000
1!
10
#260000
0!
00
#270000
1!
10
#280000
b111 "
0!
13
00
0<
1;
1:
19
07
0(
1&
1%
1$
1#
#290000
1!
10
#300000
0!
00
#310000
1!
10
#320000
b1111 "
b1011 "
b1001 "
b1000 "
0!
03
05
04
12
00
1<
0;
0:
09
0&
0%
0$
0#
#330000
1!
10
#340000
0!
00
#350000
1!
10
#360000
b1001 "
0!
13
00
1:
1%
#370000
1!
10
#380000
0!
00
#390000
1!
10
#400000
b1011 "
b1010 "
0!
03
15
00
0:
19
1&
0%
#410000
1!
10
#420000
0!
00
#430000
1!
10
#440000
b1011 "
0!
13
00
09
17
16
1)
1(
0&
#450000
1!
10
#460000
0!
00
#470000
1!
10
#480000
b1111 "
b1101 "
b1100 "
0!
03
05
14
00
0<
18
06
0)
1'
1#
#490000
1!
10
#500000
0!
00
#510000
1!
10
#520000
b1101 "
0!
13
00
1<
1;
08
07
16
1)
0(
0'
1$
0#
#530000
1!
10
#540000
0!
00
#550000
1!
10
#560000
b1111 "
b1110 "
0!
03
15
00
0;
18
17
06
0)
1(
1'
0$
#570000
1!
10
#580000
0!
00
#590000
1!
10
#600000
b1111 "
0!
13
00
19
1&
#610000
1!
10
#620000
0!
00
#630000
1!
10
#640000
b111 "
b11 "
b1 "
b0 "
0!
03
05
04
02
00
0<
09
08
07
0(
0'
0&
1#
#650000
1!
10
#660000
0!
00
#670000
1!
10
#680000
b1 "
0!
13
00
1;
1:
19
16
1)
1&
1%
1$
#690000
1!
10
#700000
0!
00
#710000
1!
10
#720000
b11 "
b10 "
0!
03
15
00
1<
0:
09
18
06
0)
1'
0&
0%
0#
#730000
1!
10
#740000
0!
00
#750000
1!
10
#760000
b11 "
0!
13
00
1:
08
0'
1%
#770000
1!
10
#780000
0!
00
#790000
1!
10
#800000
b111 "
b101 "
b100 "
0!
03
05
14
00
0;
19
16
1)
1&
0$
#810000
1!
10
#820000
0!
00
#830000
1!
10
#840000
b101 "
0!
13
00
09
17
06
0)
1(
0&
#850000
1!
10
#860000
0!
00
#870000
1!
10
#880000
b111 "
b110 "
0!
03
15
00
0:
0%
#890000
1!
10
#900000
0!
00
#910000
1!
10
#920000
b111 "
0!
13
00
0<
1;
1:
19
07
0(
1&
1%
1$
1#
#930000
1!
10
#940000
0!
00
#950000
1!
10
#960000
b1111 "
b1011 "
b1001 "
b1000 "
0!
03
05
04
12
00
1<
0;
0:
09
0&
0%
0$
0#
#970000
1!
10
#980000
0!
00
#990000
1!
10
